{
  "title": "More Lights",
  "version": "0.2.5",
  "esmodules": [
    "scripts/main.js"
  ],
  "languages": [
    {
      "lang": "en",
      "name": "English",
      "path": "lang/en.json",
      "flags": {}
    },
    {
      "lang": "de",
      "name": "German",
      "path": "lang/de.json",
      "flags": {}
    }
  ],
  "url": "https://gitlab.com/henry4k/foundryvtt-more-lights",
  "manifest": "https://gitlab.com/henry4k/foundryvtt-more-lights/-/raw/main/module.json",
  "download": "https://gitlab.com/henry4k/foundryvtt-more-lights/-/jobs/artifacts/v0.2.5/download?job=build",
  "bugs": "https://gitlab.com/henry4k/foundryvtt-more-lights/-/issues",
  "readme": "https://gitlab.com/henry4k/foundryvtt-more-lights/-/raw/main/README.md",
  "id": "more-lights",
  "authors": [
    {
      "name": "henry4k",
      "flags": {}
    }
  ],
  "compatibility": {
    "minimum": "10",
    "verified": "10",
    "maximum": "10"
  }
}
